
----------------------------------------------
Sac Record 1
/home/mfaulkne/projects/csn/android_activities/Picking/data/sac/5-5.5__0-40km__HN/e/14383980.CI.BFS.HNE.sac
/home/mfaulkne/projects/csn/android_activities/Picking/data/sac/5-5.5__0-40km__HN/n/14383980.CI.BFS.HNN.sac
/home/mfaulkne/projects/csn/android_activities/Picking/data/sac/5-5.5__0-40km__HN/z/14383980.CI.BFS.HNZ.sac
----------------------------------------------
Sac Record 2
/home/mfaulkne/projects/csn/android_activities/Picking/data/sac/5-5.5__0-40km__HN/e/14383980.CI.BRE.HNE.sac
/home/mfaulkne/projects/csn/android_activities/Picking/data/sac/5-5.5__0-40km__HN/n/14383980.CI.BRE.HNN.sac
/home/mfaulkne/projects/csn/android_activities/Picking/data/sac/5-5.5__0-40km__HN/z/14383980.CI.BRE.HNZ.sac
----------------------------------------------
Sac Record 3
/home/mfaulkne/projects/csn/android_activities/Picking/data/sac/5-5.5__0-40km__HN/e/14383980.CI.CAC.HNE.sac
/home/mfaulkne/projects/csn/android_activities/Picking/data/sac/5-5.5__0-40km__HN/n/14383980.CI.CAC.HNN.sac
/home/mfaulkne/projects/csn/android_activities/Picking/data/sac/5-5.5__0-40km__HN/z/14383980.CI.CAC.HNZ.sac
----------------------------------------------
Sac Record 4
/home/mfaulkne/projects/csn/android_activities/Picking/data/sac/5-5.5__0-40km__HN/e/14383980.CI.CHN.HNE.sac
/home/mfaulkne/projects/csn/android_activities/Picking/data/sac/5-5.5__0-40km__HN/n/14383980.CI.CHN.HNN.sac
/home/mfaulkne/projects/csn/android_activities/Picking/data/sac/5-5.5__0-40km__HN/z/14383980.CI.CHN.HNZ.sac
----------------------------------------------
Sac Record 5
/home/mfaulkne/projects/csn/android_activities/Picking/data/sac/5-5.5__0-40km__HN/e/14383980.CI.CRN.HNE.sac
/home/mfaulkne/projects/csn/android_activities/Picking/data/sac/5-5.5__0-40km__HN/n/14383980.CI.CRN.HNN.sac
/home/mfaulkne/projects/csn/android_activities/Picking/data/sac/5-5.5__0-40km__HN/z/14383980.CI.CRN.HNZ.sac
----------------------------------------------
Sac Record 6
/home/mfaulkne/projects/csn/android_activities/Picking/data/sac/5-5.5__0-40km__HN/e/14383980.CI.DLA.HNE.sac
/home/mfaulkne/projects/csn/android_activities/Picking/data/sac/5-5.5__0-40km__HN/n/14383980.CI.DLA.HNN.sac
/home/mfaulkne/projects/csn/android_activities/Picking/data/sac/5-5.5__0-40km__HN/z/14383980.CI.DLA.HNZ.sac
----------------------------------------------
Sac Record 7
/home/mfaulkne/projects/csn/android_activities/Picking/data/sac/5-5.5__0-40km__HN/e/14383980.CI.FON.HNE.sac
/home/mfaulkne/projects/csn/android_activities/Picking/data/sac/5-5.5__0-40km__HN/n/14383980.CI.FON.HNN.sac
/home/mfaulkne/projects/csn/android_activities/Picking/data/sac/5-5.5__0-40km__HN/z/14383980.CI.FON.HNZ.sac
----------------------------------------------
Sac Record 8
/home/mfaulkne/projects/csn/android_activities/Picking/data/sac/5-5.5__0-40km__HN/e/14383980.CI.FUL.HNE.sac
/home/mfaulkne/projects/csn/android_activities/Picking/data/sac/5-5.5__0-40km__HN/n/14383980.CI.FUL.HNN.sac
/home/mfaulkne/projects/csn/android_activities/Picking/data/sac/5-5.5__0-40km__HN/z/14383980.CI.FUL.HNZ.sac
----------------------------------------------
Sac Record 9
/home/mfaulkne/projects/csn/android_activities/Picking/data/sac/5-5.5__0-40km__HN/e/14383980.CI.GSA.HNE.sac
/home/mfaulkne/projects/csn/android_activities/Picking/data/sac/5-5.5__0-40km__HN/n/14383980.CI.GSA.HNN.sac
/home/mfaulkne/projects/csn/android_activities/Picking/data/sac/5-5.5__0-40km__HN/z/14383980.CI.GSA.HNZ.sac
----------------------------------------------
Sac Record 10
/home/mfaulkne/projects/csn/android_activities/Picking/data/sac/5-5.5__0-40km__HN/e/14383980.CI.KIK.HNE.sac
/home/mfaulkne/projects/csn/android_activities/Picking/data/sac/5-5.5__0-40km__HN/n/14383980.CI.KIK.HNN.sac
/home/mfaulkne/projects/csn/android_activities/Picking/data/sac/5-5.5__0-40km__HN/z/14383980.CI.KIK.HNZ.sac
----------------------------------------------
Sac Record 11
/home/mfaulkne/projects/csn/android_activities/Picking/data/sac/5-5.5__0-40km__HN/e/14383980.CI.LLS.HNE.sac
/home/mfaulkne/projects/csn/android_activities/Picking/data/sac/5-5.5__0-40km__HN/n/14383980.CI.LLS.HNN.sac
/home/mfaulkne/projects/csn/android_activities/Picking/data/sac/5-5.5__0-40km__HN/z/14383980.CI.LLS.HNZ.sac
----------------------------------------------
Sac Record 12
/home/mfaulkne/projects/csn/android_activities/Picking/data/sac/5-5.5__0-40km__HN/e/14383980.CI.LTP.HNE.sac
/home/mfaulkne/projects/csn/android_activities/Picking/data/sac/5-5.5__0-40km__HN/n/14383980.CI.LTP.HNN.sac
/home/mfaulkne/projects/csn/android_activities/Picking/data/sac/5-5.5__0-40km__HN/z/14383980.CI.LTP.HNZ.sac
----------------------------------------------
Sac Record 13
/home/mfaulkne/projects/csn/android_activities/Picking/data/sac/5-5.5__0-40km__HN/e/14383980.CI.MIK.HNE.sac
/home/mfaulkne/projects/csn/android_activities/Picking/data/sac/5-5.5__0-40km__HN/n/14383980.CI.MIK.HNN.sac
/home/mfaulkne/projects/csn/android_activities/Picking/data/sac/5-5.5__0-40km__HN/z/14383980.CI.MIK.HNZ.sac
----------------------------------------------
Sac Record 14
/home/mfaulkne/projects/csn/android_activities/Picking/data/sac/5-5.5__0-40km__HN/e/14383980.CI.MLS.HNE.sac
/home/mfaulkne/projects/csn/android_activities/Picking/data/sac/5-5.5__0-40km__HN/n/14383980.CI.MLS.HNN.sac
/home/mfaulkne/projects/csn/android_activities/Picking/data/sac/5-5.5__0-40km__HN/z/14383980.CI.MLS.HNZ.sac
----------------------------------------------
Sac Record 15
/home/mfaulkne/projects/csn/android_activities/Picking/data/sac/5-5.5__0-40km__HN/e/14383980.CI.OGC.HNE.sac
/home/mfaulkne/projects/csn/android_activities/Picking/data/sac/5-5.5__0-40km__HN/n/14383980.CI.OGC.HNN.sac
/home/mfaulkne/projects/csn/android_activities/Picking/data/sac/5-5.5__0-40km__HN/z/14383980.CI.OGC.HNZ.sac
----------------------------------------------
Sac Record 16
/home/mfaulkne/projects/csn/android_activities/Picking/data/sac/5-5.5__0-40km__HN/e/14383980.CI.OLI.HNE.sac
/home/mfaulkne/projects/csn/android_activities/Picking/data/sac/5-5.5__0-40km__HN/n/14383980.CI.OLI.HNN.sac
/home/mfaulkne/projects/csn/android_activities/Picking/data/sac/5-5.5__0-40km__HN/z/14383980.CI.OLI.HNZ.sac
----------------------------------------------
Sac Record 17
/home/mfaulkne/projects/csn/android_activities/Picking/data/sac/5-5.5__0-40km__HN/e/14383980.CI.PDU.HNE.sac
/home/mfaulkne/projects/csn/android_activities/Picking/data/sac/5-5.5__0-40km__HN/n/14383980.CI.PDU.HNN.sac
/home/mfaulkne/projects/csn/android_activities/Picking/data/sac/5-5.5__0-40km__HN/z/14383980.CI.PDU.HNZ.sac
----------------------------------------------
Sac Record 18
/home/mfaulkne/projects/csn/android_activities/Picking/data/sac/5-5.5__0-40km__HN/e/14383980.CI.PLS.HNE.sac
/home/mfaulkne/projects/csn/android_activities/Picking/data/sac/5-5.5__0-40km__HN/n/14383980.CI.PLS.HNN.sac
/home/mfaulkne/projects/csn/android_activities/Picking/data/sac/5-5.5__0-40km__HN/z/14383980.CI.PLS.HNZ.sac
----------------------------------------------
Sac Record 19
/home/mfaulkne/projects/csn/android_activities/Picking/data/sac/5-5.5__0-40km__HN/e/14383980.CI.PSR.HNE.sac
/home/mfaulkne/projects/csn/android_activities/Picking/data/sac/5-5.5__0-40km__HN/n/14383980.CI.PSR.HNN.sac
/home/mfaulkne/projects/csn/android_activities/Picking/data/sac/5-5.5__0-40km__HN/z/14383980.CI.PSR.HNZ.sac
----------------------------------------------
Sac Record 20
/home/mfaulkne/projects/csn/android_activities/Picking/data/sac/5-5.5__0-40km__HN/e/14383980.CI.RIO.HNE.sac
/home/mfaulkne/projects/csn/android_activities/Picking/data/sac/5-5.5__0-40km__HN/n/14383980.CI.RIO.HNN.sac
/home/mfaulkne/projects/csn/android_activities/Picking/data/sac/5-5.5__0-40km__HN/z/14383980.CI.RIO.HNZ.sac
----------------------------------------------
Sac Record 21
/home/mfaulkne/projects/csn/android_activities/Picking/data/sac/5-5.5__0-40km__HN/e/14383980.CI.RUS.HNE.sac
/home/mfaulkne/projects/csn/android_activities/Picking/data/sac/5-5.5__0-40km__HN/n/14383980.CI.RUS.HNN.sac
/home/mfaulkne/projects/csn/android_activities/Picking/data/sac/5-5.5__0-40km__HN/z/14383980.CI.RUS.HNZ.sac
----------------------------------------------
Sac Record 22
/home/mfaulkne/projects/csn/android_activities/Picking/data/sac/5-5.5__0-40km__HN/e/14383980.CI.RVR.HNE.sac
/home/mfaulkne/projects/csn/android_activities/Picking/data/sac/5-5.5__0-40km__HN/n/14383980.CI.RVR.HNN.sac
/home/mfaulkne/projects/csn/android_activities/Picking/data/sac/5-5.5__0-40km__HN/z/14383980.CI.RVR.HNZ.sac
----------------------------------------------
Sac Record 23
/home/mfaulkne/projects/csn/android_activities/Picking/data/sac/5-5.5__0-40km__HN/e/14383980.CI.SAN.HNE.sac
/home/mfaulkne/projects/csn/android_activities/Picking/data/sac/5-5.5__0-40km__HN/n/14383980.CI.SAN.HNN.sac
/home/mfaulkne/projects/csn/android_activities/Picking/data/sac/5-5.5__0-40km__HN/z/14383980.CI.SAN.HNZ.sac
----------------------------------------------
Sac Record 24
/home/mfaulkne/projects/csn/android_activities/Picking/data/sac/5-5.5__0-40km__HN/e/14383980.CI.SRN.HNE.sac
/home/mfaulkne/projects/csn/android_activities/Picking/data/sac/5-5.5__0-40km__HN/n/14383980.CI.SRN.HNN.sac
/home/mfaulkne/projects/csn/android_activities/Picking/data/sac/5-5.5__0-40km__HN/z/14383980.CI.SRN.HNZ.sac
----------------------------------------------
Sac Record 25
/home/mfaulkne/projects/csn/android_activities/Picking/data/sac/5-5.5__0-40km__HN/e/14383980.CI.STG.HNE.sac
/home/mfaulkne/projects/csn/android_activities/Picking/data/sac/5-5.5__0-40km__HN/n/14383980.CI.STG.HNN.sac
/home/mfaulkne/projects/csn/android_activities/Picking/data/sac/5-5.5__0-40km__HN/z/14383980.CI.STG.HNZ.sac
----------------------------------------------
Sac Record 26
/home/mfaulkne/projects/csn/android_activities/Picking/data/sac/5-5.5__0-40km__HN/e/14383980.CI.WLT.HNE.sac
/home/mfaulkne/projects/csn/android_activities/Picking/data/sac/5-5.5__0-40km__HN/n/14383980.CI.WLT.HNN.sac
/home/mfaulkne/projects/csn/android_activities/Picking/data/sac/5-5.5__0-40km__HN/z/14383980.CI.WLT.HNZ.sac
----------------------------------------------
Sac Record 27
/home/mfaulkne/projects/csn/android_activities/Picking/data/sac/5-5.5__0-40km__HN/e/14408052.CI.HEC.HNE.sac
/home/mfaulkne/projects/csn/android_activities/Picking/data/sac/5-5.5__0-40km__HN/n/14408052.CI.HEC.HNN.sac
/home/mfaulkne/projects/csn/android_activities/Picking/data/sac/5-5.5__0-40km__HN/z/14408052.CI.HEC.HNZ.sac
----------------------------------------------
Sac Record 28
/home/mfaulkne/projects/csn/android_activities/Picking/data/sac/5-5.5__0-40km__HN/e/14408052.CI.NBS.HNE.sac
/home/mfaulkne/projects/csn/android_activities/Picking/data/sac/5-5.5__0-40km__HN/n/14408052.CI.NBS.HNN.sac
/home/mfaulkne/projects/csn/android_activities/Picking/data/sac/5-5.5__0-40km__HN/z/14408052.CI.NBS.HNZ.sac
----------------------------------------------
Sac Record 29
/home/mfaulkne/projects/csn/android_activities/Picking/data/sac/5-5.5__0-40km__HN/e/14517500.CI.CGO.HNE.sac
/home/mfaulkne/projects/csn/android_activities/Picking/data/sac/5-5.5__0-40km__HN/n/14517500.CI.CGO.HNN.sac
/home/mfaulkne/projects/csn/android_activities/Picking/data/sac/5-5.5__0-40km__HN/z/14517500.CI.CGO.HNZ.sac
----------------------------------------------
Sac Record 30
/home/mfaulkne/projects/csn/android_activities/Picking/data/sac/5-5.5__0-40km__HN/e/14517500.CI.CWC.HNE.sac
/home/mfaulkne/projects/csn/android_activities/Picking/data/sac/5-5.5__0-40km__HN/n/14517500.CI.CWC.HNN.sac
/home/mfaulkne/projects/csn/android_activities/Picking/data/sac/5-5.5__0-40km__HN/z/14517500.CI.CWC.HNZ.sac
----------------------------------------------
Sac Record 31
/home/mfaulkne/projects/csn/android_activities/Picking/data/sac/5-5.5__0-40km__HN/e/14519780.CI.CGO.HNE.sac
/home/mfaulkne/projects/csn/android_activities/Picking/data/sac/5-5.5__0-40km__HN/n/14519780.CI.CGO.HNN.sac
/home/mfaulkne/projects/csn/android_activities/Picking/data/sac/5-5.5__0-40km__HN/z/14519780.CI.CGO.HNZ.sac
----------------------------------------------
Sac Record 32
/home/mfaulkne/projects/csn/android_activities/Picking/data/sac/5-5.5__0-40km__HN/e/14519780.CI.CWC.HNE.sac
/home/mfaulkne/projects/csn/android_activities/Picking/data/sac/5-5.5__0-40km__HN/n/14519780.CI.CWC.HNN.sac
/home/mfaulkne/projects/csn/android_activities/Picking/data/sac/5-5.5__0-40km__HN/z/14519780.CI.CWC.HNZ.sac
